{
  "result": {
    "pageCount": 11,
    "totalSize": 55,
    "pageIndex": 1,
    "pageSize": 5,
    "data": [{
        "modifyAdmin": "lyj",
        "code": "38ad719b342448cb84b61ec61df707231",
        "articletype": "1",
        "creatTime": "2018-02-12 18:01:30",
        "isTop": 0,
        "lastModifyTime": "2018-04-19 18:43:17",
        "name": "官方公告",
        "title": "关于春节期间充值提币不能及时到账的说明",
        "keyword": "关于春节期间充值提币不能及时到账的说明",
        "content": "尊敬的ZBC用户：2018.02.15-2018.02.21为法定节假日，期间由于财务轮休，充值提币可能会出现到账延迟，不能及时到账的情况。给您造成的不便，敬请谅解。再次感谢您对ZBC的支持与厚爱！祝您春节愉快！ZBC团队2018.02.12",
        "creatAdmin": "zbc"
    },{
      "modifyAdmin": "lyj",
      "code": "38ad719b342448cb84b61ec61df707232",
      "articletype": "1",
      "creatTime": "2018-02-12 18:01:30",
      "isTop": 0,
      "lastModifyTime": "2018-04-19 18:43:17",
      "name": "官方公告",
      "title": "关于春节期间充值提币不能及时到账的说明",
      "keyword": "关于春节期间充值提币不能及时到账的说明",
      "content": "尊敬的ZBC用户：2018.02.15-2018.02.21为法定节假日，期间由于财务轮休，充值提币可能会出现到账延迟，不能及时到账的情况。给您造成的不便，敬请谅解。再次感谢您对ZBC的支持与厚爱！祝您春节愉快！ZBC团队2018.02.12",
      "creatAdmin": "zbc"
  },{
    "modifyAdmin": "lyj",
    "code": "38ad719b342448cb84b61ec61df707233",
    "articletype": "1",
    "creatTime": "2018-02-12 18:01:30",
    "isTop": 0,
    "lastModifyTime": "2018-04-19 18:43:17",
    "name": "官方公告",
    "title": "关于春节期间充值提币不能及时到账的说明",
    "keyword": "关于春节期间充值提币不能及时到账的说明",
    "content": "尊敬的ZBC用户：2018.02.15-2018.02.21为法定节假日，期间由于财务轮休，充值提币可能会出现到账延迟，不能及时到账的情况。给您造成的不便，敬请谅解。再次感谢您对ZBC的支持与厚爱！祝您春节愉快！ZBC团队2018.02.12",
    "creatAdmin": "zbc"
},{
  "modifyAdmin": "lyj",
  "code": "38ad719b342448cb84b61ec61df707234",
  "articletype": "1",
  "creatTime": "2018-02-12 18:01:30",
  "isTop": 0,
  "lastModifyTime": "2018-04-19 18:43:17",
  "name": "官方公告",
  "title": "关于春节期间充值提币不能及时到账的说明",
  "keyword": "关于春节期间充值提币不能及时到账的说明",
  "content": "尊敬的ZBC用户：2018.02.15-2018.02.21为法定节假日，期间由于财务轮休，充值提币可能会出现到账延迟，不能及时到账的情况。给您造成的不便，敬请谅解。再次感谢您对ZBC的支持与厚爱！祝您春节愉快！ZBC团队2018.02.12",
  "creatAdmin": "zbc"
},{
  "modifyAdmin": "lyj",
  "code": "38ad719b342448cb84b61ec61df707235",
  "articletype": "1",
  "creatTime": "2018-02-12 18:01:30",
  "isTop": 0,
  "lastModifyTime": "2018-04-19 18:43:17",
  "name": "官方公告",
  "title": "关于春节期间充值提币不能及时到账的说明",
  "keyword": "关于春节期间充值提币不能及时到账的说明",
  "content": "尊敬的ZBC用户：2018.02.15-2018.02.21为法定节假日，期间由于财务轮休，充值提币可能会出现到账延迟，不能及时到账的情况。给您造成的不便，敬请谅解。再次感谢您对ZBC的支持与厚爱！祝您春节愉快！ZBC团队2018.02.12",
  "creatAdmin": "zbc"
},{
  "modifyAdmin": "lyj",
  "code": "38ad719b342448cb84b61ec61df707236",
  "articletype": "1",
  "creatTime": "2018-02-12 18:01:30",
  "isTop": 0,
  "lastModifyTime": "2018-04-19 18:43:17",
  "name": "官方公告",
  "title": "关于春节期间充值提币不能及时到账的说明",
  "keyword": "关于春节期间充值提币不能及时到账的说明",
  "content": "尊敬的ZBC用户：2018.02.15-2018.02.21为法定节假日，期间由于财务轮休，充值提币可能会出现到账延迟，不能及时到账的情况。给您造成的不便，敬请谅解。再次感谢您对ZBC的支持与厚爱！祝您春节愉快！ZBC团队2018.02.12",
  "creatAdmin": "zbc"
},{
  "modifyAdmin": "lyj",
  "code": "38ad719b342448cb84b61ec61df707237",
  "articletype": "1",
  "creatTime": "2018-02-12 18:01:30",
  "isTop": 0,
  "lastModifyTime": "2018-04-19 18:43:17",
  "name": "官方公告",
  "title": "关于春节期间充值提币不能及时到账的说明",
  "keyword": "关于春节期间充值提币不能及时到账的说明",
  "content": "尊敬的ZBC用户：2018.02.15-2018.02.21为法定节假日，期间由于财务轮休，充值提币可能会出现到账延迟，不能及时到账的情况。给您造成的不便，敬请谅解。再次感谢您对ZBC的支持与厚爱！祝您春节愉快！ZBC团队2018.02.12",
  "creatAdmin": "zbc"
},{
  "modifyAdmin": "lyj",
  "code": "38ad719b342448cb84b61ec61df707238",
  "articletype": "1",
  "creatTime": "2018-02-12 18:01:30",
  "isTop": 0,
  "lastModifyTime": "2018-04-19 18:43:17",
  "name": "官方公告",
  "title": "关于春节期间充值提币不能及时到账的说明",
  "keyword": "关于春节期间充值提币不能及时到账的说明",
  "content": "尊敬的ZBC用户：2018.02.15-2018.02.21为法定节假日，期间由于财务轮休，充值提币可能会出现到账延迟，不能及时到账的情况。给您造成的不便，敬请谅解。再次感谢您对ZBC的支持与厚爱！祝您春节愉快！ZBC团队2018.02.12",
  "creatAdmin": "zbc"
},{
  "modifyAdmin": "lyj",
  "code": "38ad719b342448cb84b61ec61df707239",
  "articletype": "1",
  "creatTime": "2018-02-12 18:01:30",
  "isTop": 0,
  "lastModifyTime": "2018-04-19 18:43:17",
  "name": "官方公告",
  "title": "关于春节期间充值提币不能及时到账的说明",
  "keyword": "关于春节期间充值提币不能及时到账的说明",
  "content": "尊敬的ZBC用户：2018.02.15-2018.02.21为法定节假日，期间由于财务轮休，充值提币可能会出现到账延迟，不能及时到账的情况。给您造成的不便，敬请谅解。再次感谢您对ZBC的支持与厚爱！祝您春节愉快！ZBC团队2018.02.12",
  "creatAdmin": "zbc"
}]
  },
  "message": "操作成功",
  "statusCode": 200
}
